<svg width="113" height="337" viewBox="0 0 113 337" fill="none" xmlns="http://www.w3.org/2000/svg">
<circle cx="-92.5" cy="131.5" r="180.5" stroke="url(#paint0_linear)" stroke-width="50"/>
<defs>
<linearGradient id="paint0_linear" x1="-92.5" y1="-74" x2="-92.5" y2="337" gradientUnits="userSpaceOnUse">
<stop stop-color="#46C212"/>
<stop offset="1" stop-color="#46C212" stop-opacity="0"/>
</linearGradient>
</defs>
</svg>
